Rental - Car Type Api: September 21, 2017, 11:35 am
Response: Array
(
    [0] => Array
        (
            [car_type_id] => 2
            [car_type_name] => HATCHBACK
            [car_type_image] => uploads/car/editcar_2.png
            [city_id] => 56
            [base_fare] => 100 Per 4 Miles
            [ride_mode] => 1
        )

    [1] => Array
        (
            [car_type_id] => 3
            [car_type_name] => LUXURY
            [car_type_image] => uploads/car/editcar_3.png
            [city_id] => 56
            [base_fare] => 100 Per 4 Miles
            [ride_mode] => 1
        )

    [2] => Array
        (
            [car_type_id] => 4
            [car_type_name] => Mini
            [car_type_image] => uploads/car/editcar_4.png
            [city_id] => 56
            [base_fare] => 178 Per 4 Miles
            [ride_mode] => 1
        )

)

city_name: Gurugram
latitude: 28.4120776386539
longitude: 77.04327781207
-------------------------
Rental - Car Type Api: September 21, 2017, 11:37 am
Response: Array
(
    [0] => Array
        (
            [car_type_id] => 2
            [car_type_name] => HATCHBACK
            [car_type_image] => uploads/car/editcar_2.png
            [city_id] => 56
            [base_fare] => 100 Per 4 Miles
            [ride_mode] => 1
        )

    [1] => Array
        (
            [car_type_id] => 3
            [car_type_name] => LUXURY
            [car_type_image] => uploads/car/editcar_3.png
            [city_id] => 56
            [base_fare] => 100 Per 4 Miles
            [ride_mode] => 1
        )

    [2] => Array
        (
            [car_type_id] => 4
            [car_type_name] => Mini
            [car_type_image] => uploads/car/editcar_4.png
            [city_id] => 56
            [base_fare] => 178 Per 4 Miles
            [ride_mode] => 1
        )

)

city_name: Gurugram
latitude: 28.4120683930142
longitude: 77.0432671532035
-------------------------
Rental - Car Type Api: September 21, 2017, 11:56 am
Response: Array
(
    [0] => Array
        (
            [car_type_id] => 2
            [car_type_name] => HATCHBACK
            [car_type_image] => uploads/car/editcar_2.png
            [city_id] => 56
            [base_fare] => 100 Per 4 Miles
            [ride_mode] => 1
        )

    [1] => Array
        (
            [car_type_id] => 3
            [car_type_name] => LUXURY
            [car_type_image] => uploads/car/editcar_3.png
            [city_id] => 56
            [base_fare] => 100 Per 4 Miles
            [ride_mode] => 1
        )

    [2] => Array
        (
            [car_type_id] => 4
            [car_type_name] => Mini
            [car_type_image] => uploads/car/editcar_4.png
            [city_id] => 56
            [base_fare] => 178 Per 4 Miles
            [ride_mode] => 1
        )

)

city_name: Gurugram
latitude: 28.4120708777097
longitude: 77.0432720609437
-------------------------
Rental - Car Type Api: September 21, 2017, 12:05 pm
Response: Array
(
    [0] => Array
        (
            [car_type_id] => 2
            [car_type_name] => HATCHBACK
            [car_type_image] => uploads/car/editcar_2.png
            [city_id] => 56
            [base_fare] => 100 Per 4 Miles
            [ride_mode] => 1
        )

    [1] => Array
        (
            [car_type_id] => 3
            [car_type_name] => LUXURY
            [car_type_image] => uploads/car/editcar_3.png
            [city_id] => 56
            [base_fare] => 100 Per 4 Miles
            [ride_mode] => 1
        )

    [2] => Array
        (
            [car_type_id] => 4
            [car_type_name] => Mini
            [car_type_image] => uploads/car/editcar_4.png
            [city_id] => 56
            [base_fare] => 178 Per 4 Miles
            [ride_mode] => 1
        )

)

city_name: Gurugram
latitude: 28.4121067289115
longitude: 77.043255418539
-------------------------
Rental - Car Type Api: September 21, 2017, 1:24 pm
Response: Array
(
    [0] => Array
        (
            [car_type_id] => 2
            [car_type_name] => HATCHBACK
            [car_type_image] => uploads/car/editcar_2.png
            [city_id] => 56
            [base_fare] => 100 Per 4 Miles
            [ride_mode] => 1
        )

    [1] => Array
        (
            [car_type_id] => 3
            [car_type_name] => LUXURY
            [car_type_image] => uploads/car/editcar_3.png
            [city_id] => 56
            [base_fare] => 100 Per 4 Miles
            [ride_mode] => 1
        )

    [2] => Array
        (
            [car_type_id] => 4
            [car_type_name] => Mini
            [car_type_image] => uploads/car/editcar_4.png
            [city_id] => 56
            [base_fare] => 178 Per 4 Miles
            [ride_mode] => 1
        )

)

city_name: Gurugram
latitude: 28.4120706719315
longitude: 77.0432389815868
-------------------------
