Rental - Car Type Api: October 7, 2017, 11:03 am
Response: Array
(
    [0] => Array
        (
            [car_type_id] => 2
            [car_type_name] => HATCHBACK
            [car_type_image] => uploads/car/editcar_2.png
            [city_id] => 56
            [base_fare] => 100 Per 4 Miles
            [ride_mode] => 1
        )

    [1] => Array
        (
            [car_type_id] => 3
            [car_type_name] => LUXURY
            [car_type_image] => uploads/car/editcar_3.png
            [city_id] => 56
            [base_fare] => 100 Per 4 Miles
            [ride_mode] => 1
        )

    [2] => Array
        (
            [car_type_id] => 4
            [car_type_name] => Mini
            [car_type_image] => uploads/car/editcar_4.png
            [city_id] => 56
            [base_fare] => 178 Per 4 Miles
            [ride_mode] => 1
        )

    [3] => Array
        (
            [car_type_id] => 001
            [car_type_name] => Rental
            [car_type_image] => uploads/car/editcar_2.png
            [city_id] => 56
            [distance] => 
            [base_fare] => 
            [ride_mode] => 2
        )

)

city_name: Gurugram
latitude: 28.412210825547344
longitude: 77.0432450249791
-------------------------
Rental - Car Type Api: October 7, 2017, 11:32 am
Response: Array
(
    [0] => Array
        (
            [car_type_id] => 2
            [car_type_name] => HATCHBACK
            [car_type_image] => uploads/car/editcar_2.png
            [city_id] => 56
            [base_fare] => 100 Per 4 Miles
            [ride_mode] => 1
        )

    [1] => Array
        (
            [car_type_id] => 3
            [car_type_name] => LUXURY
            [car_type_image] => uploads/car/editcar_3.png
            [city_id] => 56
            [base_fare] => 100 Per 4 Miles
            [ride_mode] => 1
        )

    [2] => Array
        (
            [car_type_id] => 4
            [car_type_name] => Mini
            [car_type_image] => uploads/car/editcar_4.png
            [city_id] => 56
            [base_fare] => 178 Per 4 Miles
            [ride_mode] => 1
        )

    [3] => Array
        (
            [car_type_id] => 001
            [car_type_name] => Rental
            [car_type_image] => uploads/car/editcar_2.png
            [city_id] => 56
            [distance] => 
            [base_fare] => 
            [ride_mode] => 2
        )

)

city_name: Gurugram
latitude: 28.412209645982635
longitude: 77.04324670135975
-------------------------
Rental - Car Type Api: October 7, 2017, 11:37 am
Response: Array
(
    [0] => Array
        (
            [car_type_id] => 2
            [car_type_name] => HATCHBACK
            [car_type_image] => uploads/car/editcar_2.png
            [city_id] => 56
            [base_fare] => 100 Per 4 Miles
            [ride_mode] => 1
        )

    [1] => Array
        (
            [car_type_id] => 3
            [car_type_name] => LUXURY
            [car_type_image] => uploads/car/editcar_3.png
            [city_id] => 56
            [base_fare] => 100 Per 4 Miles
            [ride_mode] => 1
        )

    [2] => Array
        (
            [car_type_id] => 4
            [car_type_name] => Mini
            [car_type_image] => uploads/car/editcar_4.png
            [city_id] => 56
            [base_fare] => 178 Per 4 Miles
            [ride_mode] => 1
        )

    [3] => Array
        (
            [car_type_id] => 001
            [car_type_name] => Rental
            [car_type_image] => uploads/car/editcar_2.png
            [city_id] => 56
            [distance] => 
            [base_fare] => 
            [ride_mode] => 2
        )

)

city_name: Gurugram
latitude: 28.4122272313119
longitude: 77.043426132478
-------------------------
Rental - Car Type Api: October 7, 2017, 11:51 am
Response: Array
(
    [0] => Array
        (
            [car_type_id] => 2
            [car_type_name] => HATCHBACK
            [car_type_image] => uploads/car/editcar_2.png
            [city_id] => 56
            [base_fare] => 100 Per 4 Miles
            [ride_mode] => 1
        )

    [1] => Array
        (
            [car_type_id] => 3
            [car_type_name] => LUXURY
            [car_type_image] => uploads/car/editcar_3.png
            [city_id] => 56
            [base_fare] => 100 Per 4 Miles
            [ride_mode] => 1
        )

    [2] => Array
        (
            [car_type_id] => 4
            [car_type_name] => Mini
            [car_type_image] => uploads/car/editcar_4.png
            [city_id] => 56
            [base_fare] => 178 Per 4 Miles
            [ride_mode] => 1
        )

    [3] => Array
        (
            [car_type_id] => 001
            [car_type_name] => Rental
            [car_type_image] => uploads/car/editcar_2.png
            [city_id] => 56
            [distance] => 
            [base_fare] => 
            [ride_mode] => 2
        )

)

city_name: Gurugram
latitude: 28.4121472036055
longitude: 77.0432372419296
-------------------------
Rental - Car Type Api: October 7, 2017, 11:56 am
Response: Array
(
    [0] => Array
        (
            [car_type_id] => 2
            [car_type_name] => HATCHBACK
            [car_type_image] => uploads/car/editcar_2.png
            [city_id] => 56
            [base_fare] => 100 Per 4 Miles
            [ride_mode] => 1
        )

    [1] => Array
        (
            [car_type_id] => 3
            [car_type_name] => LUXURY
            [car_type_image] => uploads/car/editcar_3.png
            [city_id] => 56
            [base_fare] => 100 Per 4 Miles
            [ride_mode] => 1
        )

    [2] => Array
        (
            [car_type_id] => 4
            [car_type_name] => Mini
            [car_type_image] => uploads/car/editcar_4.png
            [city_id] => 56
            [base_fare] => 178 Per 4 Miles
            [ride_mode] => 1
        )

    [3] => Array
        (
            [car_type_id] => 001
            [car_type_name] => Rental
            [car_type_image] => uploads/car/editcar_2.png
            [city_id] => 56
            [distance] => 
            [base_fare] => 
            [ride_mode] => 2
        )

)

city_name: Gurugram
latitude: 28.4122520905841
longitude: 77.0431562629419
-------------------------
Rental - Car Type Api: October 7, 2017, 12:23 pm
Response: Array
(
    [0] => Array
        (
            [car_type_id] => 2
            [car_type_name] => HATCHBACK
            [car_type_image] => uploads/car/editcar_2.png
            [city_id] => 56
            [base_fare] => 100 Per 4 Miles
            [ride_mode] => 1
        )

    [1] => Array
        (
            [car_type_id] => 3
            [car_type_name] => LUXURY
            [car_type_image] => uploads/car/editcar_3.png
            [city_id] => 56
            [base_fare] => 100 Per 4 Miles
            [ride_mode] => 1
        )

    [2] => Array
        (
            [car_type_id] => 4
            [car_type_name] => Mini
            [car_type_image] => uploads/car/editcar_4.png
            [city_id] => 56
            [base_fare] => 178 Per 4 Miles
            [ride_mode] => 1
        )

    [3] => Array
        (
            [car_type_id] => 001
            [car_type_name] => Rental
            [car_type_image] => uploads/car/editcar_2.png
            [city_id] => 56
            [distance] => 
            [base_fare] => 
            [ride_mode] => 2
        )

)

city_name: Gurugram
latitude: 28.4122128740115
longitude: 77.0433432182936
-------------------------
Rental - Car Type Api: October 7, 2017, 12:25 pm
Response: Array
(
    [0] => Array
        (
            [car_type_id] => 2
            [car_type_name] => HATCHBACK
            [car_type_image] => uploads/car/editcar_2.png
            [city_id] => 121
            [base_fare] => 100 Per 5 Km
            [ride_mode] => 1
        )

    [1] => Array
        (
            [car_type_id] => 3
            [car_type_name] => LUXURY
            [car_type_image] => uploads/car/editcar_3.png
            [city_id] => 121
            [base_fare] => 200 Per 5 Km
            [ride_mode] => 1
        )

)

city_name: Karachi
latitude: 24.903845356328322
longitude: 67.02654484659433
-------------------------
Rental - Car Type Api: October 7, 2017, 12:32 pm
Response: Array
(
    [0] => Array
        (
            [car_type_id] => 2
            [car_type_name] => HATCHBACK
            [car_type_image] => uploads/car/editcar_2.png
            [city_id] => 56
            [base_fare] => 100 Per 4 Miles
            [ride_mode] => 1
        )

    [1] => Array
        (
            [car_type_id] => 3
            [car_type_name] => LUXURY
            [car_type_image] => uploads/car/editcar_3.png
            [city_id] => 56
            [base_fare] => 100 Per 4 Miles
            [ride_mode] => 1
        )

    [2] => Array
        (
            [car_type_id] => 4
            [car_type_name] => Mini
            [car_type_image] => uploads/car/editcar_4.png
            [city_id] => 56
            [base_fare] => 178 Per 4 Miles
            [ride_mode] => 1
        )

    [3] => Array
        (
            [car_type_id] => 001
            [car_type_name] => Rental
            [car_type_image] => uploads/car/editcar_2.png
            [city_id] => 56
            [distance] => 
            [base_fare] => 
            [ride_mode] => 2
        )

)

city_name: Gurugram
latitude: 28.4120126584926
longitude: 77.0311197638512
-------------------------
Rental - Car Type Api: October 7, 2017, 12:52 pm
Response: Array
(
    [0] => Array
        (
            [car_type_id] => 2
            [car_type_name] => HATCHBACK
            [car_type_image] => uploads/car/editcar_2.png
            [city_id] => 56
            [base_fare] => 100 Per 4 Miles
            [ride_mode] => 1
        )

    [1] => Array
        (
            [car_type_id] => 3
            [car_type_name] => LUXURY
            [car_type_image] => uploads/car/editcar_3.png
            [city_id] => 56
            [base_fare] => 100 Per 4 Miles
            [ride_mode] => 1
        )

    [2] => Array
        (
            [car_type_id] => 4
            [car_type_name] => Mini
            [car_type_image] => uploads/car/editcar_4.png
            [city_id] => 56
            [base_fare] => 178 Per 4 Miles
            [ride_mode] => 1
        )

    [3] => Array
        (
            [car_type_id] => 001
            [car_type_name] => Rental
            [car_type_image] => uploads/car/editcar_2.png
            [city_id] => 56
            [distance] => 
            [base_fare] => 
            [ride_mode] => 2
        )

)

city_name: Gurugram
latitude: 28.412217313152986
longitude: 77.04323194921017
-------------------------
Rental - Car Type Api: October 7, 2017, 12:58 pm
Response: Array
(
    [0] => Array
        (
            [car_type_id] => 4
            [car_type_name] => Mini
            [car_type_image] => uploads/car/editcar_4.png
            [city_id] => 122
            [base_fare] => 100 Per 3 Km
            [ride_mode] => 1
        )

    [1] => Array
        (
            [car_type_id] => 3
            [car_type_name] => LUXURY
            [car_type_image] => uploads/car/editcar_3.png
            [city_id] => 122
            [base_fare] => 200 Per 3 Km
            [ride_mode] => 1
        )

    [2] => Array
        (
            [car_type_id] => 001
            [car_type_name] => Rental
            [car_type_image] => uploads/car/editcar_2.png
            [city_id] => 122
            [distance] => 
            [base_fare] => 
            [ride_mode] => 2
        )

)

city_name: Sharjah
latitude: 25.3008158658763
longitude: 55.4425244465095
-------------------------
Rental - Car Type Api: October 7, 2017, 1:02 pm
Response: Array
(
    [0] => Array
        (
            [car_type_id] => 2
            [car_type_name] => HATCHBACK
            [car_type_image] => uploads/car/editcar_2.png
            [city_id] => 56
            [base_fare] => 100 Per 4 Miles
            [ride_mode] => 1
        )

    [1] => Array
        (
            [car_type_id] => 3
            [car_type_name] => LUXURY
            [car_type_image] => uploads/car/editcar_3.png
            [city_id] => 56
            [base_fare] => 100 Per 4 Miles
            [ride_mode] => 1
        )

    [2] => Array
        (
            [car_type_id] => 4
            [car_type_name] => Mini
            [car_type_image] => uploads/car/editcar_4.png
            [city_id] => 56
            [base_fare] => 178 Per 4 Miles
            [ride_mode] => 1
        )

    [3] => Array
        (
            [car_type_id] => 001
            [car_type_name] => Rental
            [car_type_image] => uploads/car/editcar_2.png
            [city_id] => 56
            [distance] => 
            [base_fare] => 
            [ride_mode] => 2
        )

)

city_name: Gurugram
latitude: 28.4120126584926
longitude: 77.0311197638512
-------------------------
Rental - Car Type Api: October 7, 2017, 1:10 pm
Response: Array
(
    [0] => Array
        (
            [car_type_id] => 4
            [car_type_name] => Mini
            [car_type_image] => uploads/car/editcar_4.png
            [city_id] => 122
            [base_fare] => 100 Per 3 Km
            [ride_mode] => 1
        )

    [1] => Array
        (
            [car_type_id] => 3
            [car_type_name] => LUXURY
            [car_type_image] => uploads/car/editcar_3.png
            [city_id] => 122
            [base_fare] => 200 Per 3 Km
            [ride_mode] => 1
        )

    [2] => Array
        (
            [car_type_id] => 001
            [car_type_name] => Rental
            [car_type_image] => uploads/car/editcar_2.png
            [city_id] => 122
            [distance] => 
            [base_fare] => 
            [ride_mode] => 2
        )

)

city_name: Sharjah
latitude: 25.3008373030393
longitude: 55.4426232265409
-------------------------
Rental - Car Type Api: October 7, 2017, 1:13 pm
Response: Array
(
    [0] => Array
        (
            [car_type_id] => 2
            [car_type_name] => HATCHBACK
            [car_type_image] => uploads/car/editcar_2.png
            [city_id] => 56
            [base_fare] => 100 Per 4 Miles
            [ride_mode] => 1
        )

    [1] => Array
        (
            [car_type_id] => 3
            [car_type_name] => LUXURY
            [car_type_image] => uploads/car/editcar_3.png
            [city_id] => 56
            [base_fare] => 100 Per 4 Miles
            [ride_mode] => 1
        )

    [2] => Array
        (
            [car_type_id] => 4
            [car_type_name] => Mini
            [car_type_image] => uploads/car/editcar_4.png
            [city_id] => 56
            [base_fare] => 178 Per 4 Miles
            [ride_mode] => 1
        )

    [3] => Array
        (
            [car_type_id] => 001
            [car_type_name] => Rental
            [car_type_image] => uploads/car/editcar_2.png
            [city_id] => 56
            [distance] => 
            [base_fare] => 
            [ride_mode] => 2
        )

)

city_name: Gurugram
latitude: 28.41221878760878
longitude: 77.04323463141918
-------------------------
Rental - Car Type Api: October 7, 2017, 1:14 pm
Response: Array
(
    [0] => Array
        (
            [car_type_id] => 2
            [car_type_name] => HATCHBACK
            [car_type_image] => uploads/car/editcar_2.png
            [city_id] => 56
            [base_fare] => 100 Per 4 Miles
            [ride_mode] => 1
        )

    [1] => Array
        (
            [car_type_id] => 3
            [car_type_name] => LUXURY
            [car_type_image] => uploads/car/editcar_3.png
            [city_id] => 56
            [base_fare] => 100 Per 4 Miles
            [ride_mode] => 1
        )

    [2] => Array
        (
            [car_type_id] => 4
            [car_type_name] => Mini
            [car_type_image] => uploads/car/editcar_4.png
            [city_id] => 56
            [base_fare] => 178 Per 4 Miles
            [ride_mode] => 1
        )

    [3] => Array
        (
            [car_type_id] => 001
            [car_type_name] => Rental
            [car_type_image] => uploads/car/editcar_2.png
            [city_id] => 56
            [distance] => 
            [base_fare] => 
            [ride_mode] => 2
        )

)

city_name: Gurugram
latitude: 28.41221878760878
longitude: 77.04323463141918
-------------------------
Rental - Car Type Api: October 7, 2017, 2:21 pm
Response: Array
(
    [0] => Array
        (
            [car_type_id] => 2
            [car_type_name] => HATCHBACK
            [car_type_image] => uploads/car/editcar_2.png
            [city_id] => 56
            [base_fare] => 100 Per 4 Miles
            [ride_mode] => 1
        )

    [1] => Array
        (
            [car_type_id] => 3
            [car_type_name] => LUXURY
            [car_type_image] => uploads/car/editcar_3.png
            [city_id] => 56
            [base_fare] => 100 Per 4 Miles
            [ride_mode] => 1
        )

    [2] => Array
        (
            [car_type_id] => 4
            [car_type_name] => Mini
            [car_type_image] => uploads/car/editcar_4.png
            [city_id] => 56
            [base_fare] => 178 Per 4 Miles
            [ride_mode] => 1
        )

    [3] => Array
        (
            [car_type_id] => 001
            [car_type_name] => Rental
            [car_type_image] => uploads/car/editcar_2.png
            [city_id] => 56
            [distance] => 
            [base_fare] => 
            [ride_mode] => 2
        )

)

city_name: Gurugram
latitude: 28.412218492717617
longitude: 77.04323396086694
-------------------------
Rental - Car Type Api: October 7, 2017, 2:33 pm
Response: Array
(
    [0] => Array
        (
            [car_type_id] => 2
            [car_type_name] => HATCHBACK
            [car_type_image] => uploads/car/editcar_2.png
            [city_id] => 56
            [base_fare] => 100 Per 4 Miles
            [ride_mode] => 1
        )

    [1] => Array
        (
            [car_type_id] => 3
            [car_type_name] => LUXURY
            [car_type_image] => uploads/car/editcar_3.png
            [city_id] => 56
            [base_fare] => 100 Per 4 Miles
            [ride_mode] => 1
        )

    [2] => Array
        (
            [car_type_id] => 4
            [car_type_name] => Mini
            [car_type_image] => uploads/car/editcar_4.png
            [city_id] => 56
            [base_fare] => 178 Per 4 Miles
            [ride_mode] => 1
        )

    [3] => Array
        (
            [car_type_id] => 001
            [car_type_name] => Rental
            [car_type_image] => uploads/car/editcar_2.png
            [city_id] => 56
            [distance] => 
            [base_fare] => 
            [ride_mode] => 2
        )

)

city_name: Gurugram
latitude: 28.412218492717617
longitude: 77.04323329031467
-------------------------
Rental - Car Type Api: October 7, 2017, 2:39 pm
Response: Array
(
    [0] => Array
        (
            [car_type_id] => 2
            [car_type_name] => HATCHBACK
            [car_type_image] => uploads/car/editcar_2.png
            [city_id] => 56
            [base_fare] => 100 Per 4 Miles
            [ride_mode] => 1
        )

    [1] => Array
        (
            [car_type_id] => 3
            [car_type_name] => LUXURY
            [car_type_image] => uploads/car/editcar_3.png
            [city_id] => 56
            [base_fare] => 100 Per 4 Miles
            [ride_mode] => 1
        )

    [2] => Array
        (
            [car_type_id] => 4
            [car_type_name] => Mini
            [car_type_image] => uploads/car/editcar_4.png
            [city_id] => 56
            [base_fare] => 178 Per 4 Miles
            [ride_mode] => 1
        )

    [3] => Array
        (
            [car_type_id] => 001
            [car_type_name] => Rental
            [car_type_image] => uploads/car/editcar_2.png
            [city_id] => 56
            [distance] => 
            [base_fare] => 
            [ride_mode] => 2
        )

)

city_name: Gurugram
latitude: 28.412218197826462
longitude: 77.04323329031467
-------------------------
Rental - Car Type Api: October 7, 2017, 2:50 pm
Response: Array
(
    [0] => Array
        (
            [car_type_id] => 2
            [car_type_name] => HATCHBACK
            [car_type_image] => uploads/car/editcar_2.png
            [city_id] => 56
            [base_fare] => 100 Per 4 Miles
            [ride_mode] => 1
        )

    [1] => Array
        (
            [car_type_id] => 3
            [car_type_name] => LUXURY
            [car_type_image] => uploads/car/editcar_3.png
            [city_id] => 56
            [base_fare] => 100 Per 4 Miles
            [ride_mode] => 1
        )

    [2] => Array
        (
            [car_type_id] => 4
            [car_type_name] => Mini
            [car_type_image] => uploads/car/editcar_4.png
            [city_id] => 56
            [base_fare] => 178 Per 4 Miles
            [ride_mode] => 1
        )

    [3] => Array
        (
            [car_type_id] => 001
            [car_type_name] => Rental
            [car_type_image] => uploads/car/editcar_2.png
            [city_id] => 56
            [distance] => 
            [base_fare] => 
            [ride_mode] => 2
        )

)

city_name: Gurugram
latitude: 28.412217313152986
longitude: 77.04323396086694
-------------------------
Rental - Car Type Api: October 7, 2017, 2:51 pm
Response: Array
(
    [0] => Array
        (
            [car_type_id] => 2
            [car_type_name] => HATCHBACK
            [car_type_image] => uploads/car/editcar_2.png
            [city_id] => 56
            [base_fare] => 100 Per 4 Miles
            [ride_mode] => 1
        )

    [1] => Array
        (
            [car_type_id] => 3
            [car_type_name] => LUXURY
            [car_type_image] => uploads/car/editcar_3.png
            [city_id] => 56
            [base_fare] => 100 Per 4 Miles
            [ride_mode] => 1
        )

    [2] => Array
        (
            [car_type_id] => 4
            [car_type_name] => Mini
            [car_type_image] => uploads/car/editcar_4.png
            [city_id] => 56
            [base_fare] => 178 Per 4 Miles
            [ride_mode] => 1
        )

    [3] => Array
        (
            [car_type_id] => 001
            [car_type_name] => Rental
            [car_type_image] => uploads/car/editcar_2.png
            [city_id] => 56
            [distance] => 
            [base_fare] => 
            [ride_mode] => 2
        )

)

city_name: Gurugram
latitude: 28.412217313152986
longitude: 77.04323396086694
-------------------------
Rental - Car Type Api: October 7, 2017, 2:52 pm
Response: Array
(
    [0] => Array
        (
            [car_type_id] => 2
            [car_type_name] => HATCHBACK
            [car_type_image] => uploads/car/editcar_2.png
            [city_id] => 56
            [base_fare] => 100 Per 4 Miles
            [ride_mode] => 1
        )

    [1] => Array
        (
            [car_type_id] => 3
            [car_type_name] => LUXURY
            [car_type_image] => uploads/car/editcar_3.png
            [city_id] => 56
            [base_fare] => 100 Per 4 Miles
            [ride_mode] => 1
        )

    [2] => Array
        (
            [car_type_id] => 4
            [car_type_name] => Mini
            [car_type_image] => uploads/car/editcar_4.png
            [city_id] => 56
            [base_fare] => 178 Per 4 Miles
            [ride_mode] => 1
        )

    [3] => Array
        (
            [car_type_id] => 001
            [car_type_name] => Rental
            [car_type_image] => uploads/car/editcar_2.png
            [city_id] => 56
            [distance] => 
            [base_fare] => 
            [ride_mode] => 2
        )

)

city_name: Gurugram
latitude: 28.4121010320938
longitude: 77.043279737281
-------------------------
Rental - Car Type Api: October 7, 2017, 3:05 pm
Response: Array
(
    [0] => Array
        (
            [car_type_id] => 2
            [car_type_name] => HATCHBACK
            [car_type_image] => uploads/car/editcar_2.png
            [city_id] => 56
            [base_fare] => 100 Per 4 Miles
            [ride_mode] => 1
        )

    [1] => Array
        (
            [car_type_id] => 3
            [car_type_name] => LUXURY
            [car_type_image] => uploads/car/editcar_3.png
            [city_id] => 56
            [base_fare] => 100 Per 4 Miles
            [ride_mode] => 1
        )

    [2] => Array
        (
            [car_type_id] => 4
            [car_type_name] => Mini
            [car_type_image] => uploads/car/editcar_4.png
            [city_id] => 56
            [base_fare] => 178 Per 4 Miles
            [ride_mode] => 1
        )

    [3] => Array
        (
            [car_type_id] => 001
            [car_type_name] => Rental
            [car_type_image] => uploads/car/editcar_2.png
            [city_id] => 56
            [distance] => 
            [base_fare] => 
            [ride_mode] => 2
        )

)

city_name: Gurugram
latitude: 28.412214069350203
longitude: 77.04323261976242
-------------------------
Rental - Car Type Api: October 7, 2017, 3:06 pm
Response: Array
(
    [0] => Array
        (
            [car_type_id] => 2
            [car_type_name] => HATCHBACK
            [car_type_image] => uploads/car/editcar_2.png
            [city_id] => 56
            [base_fare] => 100 Per 4 Miles
            [ride_mode] => 1
        )

    [1] => Array
        (
            [car_type_id] => 3
            [car_type_name] => LUXURY
            [car_type_image] => uploads/car/editcar_3.png
            [city_id] => 56
            [base_fare] => 100 Per 4 Miles
            [ride_mode] => 1
        )

    [2] => Array
        (
            [car_type_id] => 4
            [car_type_name] => Mini
            [car_type_image] => uploads/car/editcar_4.png
            [city_id] => 56
            [base_fare] => 178 Per 4 Miles
            [ride_mode] => 1
        )

    [3] => Array
        (
            [car_type_id] => 001
            [car_type_name] => Rental
            [car_type_image] => uploads/car/editcar_2.png
            [city_id] => 56
            [distance] => 
            [base_fare] => 
            [ride_mode] => 2
        )

)

city_name: Gurugram
latitude: 28.412212300003205
longitude: 77.0432349666953
-------------------------
Rental - Car Type Api: October 7, 2017, 3:12 pm
Response: Array
(
    [0] => Array
        (
            [car_type_id] => 2
            [car_type_name] => HATCHBACK
            [car_type_image] => uploads/car/editcar_2.png
            [city_id] => 56
            [base_fare] => 100 Per 4 Miles
            [ride_mode] => 1
        )

    [1] => Array
        (
            [car_type_id] => 3
            [car_type_name] => LUXURY
            [car_type_image] => uploads/car/editcar_3.png
            [city_id] => 56
            [base_fare] => 100 Per 4 Miles
            [ride_mode] => 1
        )

    [2] => Array
        (
            [car_type_id] => 4
            [car_type_name] => Mini
            [car_type_image] => uploads/car/editcar_4.png
            [city_id] => 56
            [base_fare] => 178 Per 4 Miles
            [ride_mode] => 1
        )

    [3] => Array
        (
            [car_type_id] => 001
            [car_type_name] => Rental
            [car_type_image] => uploads/car/editcar_2.png
            [city_id] => 56
            [distance] => 
            [base_fare] => 
            [ride_mode] => 2
        )

)

city_name: Gurugram
latitude: 28.4122072868532
longitude: 77.0432423427701
-------------------------
Rental - Car Type Api: October 7, 2017, 3:19 pm
Response: Array
(
    [0] => Array
        (
            [car_type_id] => 2
            [car_type_name] => HATCHBACK
            [car_type_image] => uploads/car/editcar_2.png
            [city_id] => 56
            [base_fare] => 100 Per 4 Miles
            [ride_mode] => 1
        )

    [1] => Array
        (
            [car_type_id] => 3
            [car_type_name] => LUXURY
            [car_type_image] => uploads/car/editcar_3.png
            [city_id] => 56
            [base_fare] => 100 Per 4 Miles
            [ride_mode] => 1
        )

    [2] => Array
        (
            [car_type_id] => 4
            [car_type_name] => Mini
            [car_type_image] => uploads/car/editcar_4.png
            [city_id] => 56
            [base_fare] => 178 Per 4 Miles
            [ride_mode] => 1
        )

    [3] => Array
        (
            [car_type_id] => 001
            [car_type_name] => Rental
            [car_type_image] => uploads/car/editcar_2.png
            [city_id] => 56
            [distance] => 
            [base_fare] => 
            [ride_mode] => 2
        )

)

city_name: Gurugram
latitude: 28.412209056200293
longitude: 77.04324536025524
-------------------------
Rental - Car Type Api: October 7, 2017, 3:23 pm
Response: Array
(
    [0] => Array
        (
            [car_type_id] => 4
            [car_type_name] => Mini
            [car_type_image] => uploads/car/editcar_4.png
            [city_id] => 122
            [base_fare] => 100 Per 3 Km
            [ride_mode] => 1
        )

    [1] => Array
        (
            [car_type_id] => 3
            [car_type_name] => LUXURY
            [car_type_image] => uploads/car/editcar_3.png
            [city_id] => 122
            [base_fare] => 200 Per 3 Km
            [ride_mode] => 1
        )

    [2] => Array
        (
            [car_type_id] => 001
            [car_type_name] => Rental
            [car_type_image] => uploads/car/editcar_2.png
            [city_id] => 122
            [distance] => 
            [base_fare] => 
            [ride_mode] => 2
        )

)

city_name: Sharjah
latitude: 25.3008271336297
longitude: 55.4427393790694
-------------------------
Rental - Car Type Api: October 7, 2017, 3:26 pm
Response: Array
(
    [0] => Array
        (
            [car_type_id] => 2
            [car_type_name] => HATCHBACK
            [car_type_image] => uploads/car/editcar_2.png
            [city_id] => 56
            [base_fare] => 100 Per 4 Miles
            [ride_mode] => 1
        )

    [1] => Array
        (
            [car_type_id] => 3
            [car_type_name] => LUXURY
            [car_type_image] => uploads/car/editcar_3.png
            [city_id] => 56
            [base_fare] => 100 Per 4 Miles
            [ride_mode] => 1
        )

    [2] => Array
        (
            [car_type_id] => 4
            [car_type_name] => Mini
            [car_type_image] => uploads/car/editcar_4.png
            [city_id] => 56
            [base_fare] => 178 Per 4 Miles
            [ride_mode] => 1
        )

    [3] => Array
        (
            [car_type_id] => 001
            [car_type_name] => Rental
            [car_type_image] => uploads/car/editcar_2.png
            [city_id] => 56
            [distance] => 
            [base_fare] => 
            [ride_mode] => 2
        )

)

city_name: Gurugram
latitude: 28.41221878760878
longitude: 77.04323463141918
-------------------------
Rental - Car Type Api: October 7, 2017, 4:01 pm
Response: Array
(
    [0] => Array
        (
            [car_type_id] => 4
            [car_type_name] => Mini
            [car_type_image] => uploads/car/editcar_4.png
            [city_id] => 122
            [base_fare] => 100 Per 3 Km
            [ride_mode] => 1
        )

    [1] => Array
        (
            [car_type_id] => 3
            [car_type_name] => LUXURY
            [car_type_image] => uploads/car/editcar_3.png
            [city_id] => 122
            [base_fare] => 200 Per 3 Km
            [ride_mode] => 1
        )

    [2] => Array
        (
            [car_type_id] => 001
            [car_type_name] => Rental
            [car_type_image] => uploads/car/editcar_2.png
            [city_id] => 122
            [distance] => 
            [base_fare] => 
            [ride_mode] => 2
        )

)

city_name: Sharjah
latitude: 25.30074978820543
longitude: 55.442715771496296
-------------------------
Rental - Car Type Api: October 7, 2017, 4:03 pm
Response: Array
(
    [0] => Array
        (
            [car_type_id] => 4
            [car_type_name] => Mini
            [car_type_image] => uploads/car/editcar_4.png
            [city_id] => 122
            [base_fare] => 100 Per 3 Km
            [ride_mode] => 1
        )

    [1] => Array
        (
            [car_type_id] => 3
            [car_type_name] => LUXURY
            [car_type_image] => uploads/car/editcar_3.png
            [city_id] => 122
            [base_fare] => 200 Per 3 Km
            [ride_mode] => 1
        )

    [2] => Array
        (
            [car_type_id] => 001
            [car_type_name] => Rental
            [car_type_image] => uploads/car/editcar_2.png
            [city_id] => 122
            [distance] => 
            [base_fare] => 
            [ride_mode] => 2
        )

)

city_name: Sharjah
latitude: 25.300740694742455
longitude: 55.442714765667915
-------------------------
Rental - Car Type Api: October 7, 2017, 4:05 pm
Response: Array
(
    [0] => Array
        (
            [car_type_id] => 4
            [car_type_name] => Mini
            [car_type_image] => uploads/car/editcar_4.png
            [city_id] => 122
            [base_fare] => 100 Per 3 Km
            [ride_mode] => 1
        )

    [1] => Array
        (
            [car_type_id] => 3
            [car_type_name] => LUXURY
            [car_type_image] => uploads/car/editcar_3.png
            [city_id] => 122
            [base_fare] => 200 Per 3 Km
            [ride_mode] => 1
        )

    [2] => Array
        (
            [car_type_id] => 001
            [car_type_name] => Rental
            [car_type_image] => uploads/car/editcar_2.png
            [city_id] => 122
            [distance] => 
            [base_fare] => 
            [ride_mode] => 2
        )

)

city_name: Sharjah
latitude: 25.30074978820543
longitude: 55.442715771496296
-------------------------
Rental - Car Type Api: October 7, 2017, 4:09 pm
Response: Array
(
    [0] => Array
        (
            [car_type_id] => 4
            [car_type_name] => Mini
            [car_type_image] => uploads/car/editcar_4.png
            [city_id] => 122
            [base_fare] => 100 Per 3 Km
            [ride_mode] => 1
        )

    [1] => Array
        (
            [car_type_id] => 3
            [car_type_name] => LUXURY
            [car_type_image] => uploads/car/editcar_3.png
            [city_id] => 122
            [base_fare] => 200 Per 3 Km
            [ride_mode] => 1
        )

    [2] => Array
        (
            [car_type_id] => 001
            [car_type_name] => Rental
            [car_type_image] => uploads/car/editcar_2.png
            [city_id] => 122
            [distance] => 
            [base_fare] => 
            [ride_mode] => 2
        )

)

city_name: Sharjah
latitude: 25.30074978820543
longitude: 55.442715771496296
-------------------------
Rental - Car Type Api: October 7, 2017, 4:45 pm
Response: Array
(
    [0] => Array
        (
            [car_type_id] => 4
            [car_type_name] => Mini
            [car_type_image] => uploads/car/editcar_4.png
            [city_id] => 122
            [base_fare] => 100 Per 3 Km
            [ride_mode] => 1
        )

    [1] => Array
        (
            [car_type_id] => 3
            [car_type_name] => LUXURY
            [car_type_image] => uploads/car/editcar_3.png
            [city_id] => 122
            [base_fare] => 200 Per 3 Km
            [ride_mode] => 1
        )

    [2] => Array
        (
            [car_type_id] => 001
            [car_type_name] => Rental
            [car_type_image] => uploads/car/editcar_2.png
            [city_id] => 122
            [distance] => 
            [base_fare] => 
            [ride_mode] => 2
        )

)

city_name: Sharjah
latitude: 25.30074978820543
longitude: 55.442715771496296
-------------------------
Rental - Car Type Api: October 7, 2017, 4:49 pm
Response: Array
(
    [0] => Array
        (
            [car_type_id] => 4
            [car_type_name] => Mini
            [car_type_image] => uploads/car/editcar_4.png
            [city_id] => 122
            [base_fare] => 100 Per 3 Km
            [ride_mode] => 1
        )

    [1] => Array
        (
            [car_type_id] => 3
            [car_type_name] => LUXURY
            [car_type_image] => uploads/car/editcar_3.png
            [city_id] => 122
            [base_fare] => 200 Per 3 Km
            [ride_mode] => 1
        )

    [2] => Array
        (
            [car_type_id] => 001
            [car_type_name] => Rental
            [car_type_image] => uploads/car/editcar_2.png
            [city_id] => 122
            [distance] => 
            [base_fare] => 
            [ride_mode] => 2
        )

)

city_name: Sharjah
latitude: 25.30074978820543
longitude: 55.442715771496296
-------------------------
Rental - Car Type Api: October 7, 2017, 4:56 pm
Response: Array
(
    [0] => Array
        (
            [car_type_id] => 4
            [car_type_name] => Mini
            [car_type_image] => uploads/car/editcar_4.png
            [city_id] => 122
            [base_fare] => 100 Per 3 Km
            [ride_mode] => 1
        )

    [1] => Array
        (
            [car_type_id] => 3
            [car_type_name] => LUXURY
            [car_type_image] => uploads/car/editcar_3.png
            [city_id] => 122
            [base_fare] => 200 Per 3 Km
            [ride_mode] => 1
        )

    [2] => Array
        (
            [car_type_id] => 001
            [car_type_name] => Rental
            [car_type_image] => uploads/car/editcar_2.png
            [city_id] => 122
            [distance] => 
            [base_fare] => 
            [ride_mode] => 2
        )

)

city_name: Sharjah
latitude: 25.30074978820543
longitude: 55.442715771496296
-------------------------
Rental - Car Type Api: October 7, 2017, 5:01 pm
Response: Array
(
    [0] => Array
        (
            [car_type_id] => 4
            [car_type_name] => Mini
            [car_type_image] => uploads/car/editcar_4.png
            [city_id] => 122
            [base_fare] => 100 Per 3 Km
            [ride_mode] => 1
        )

    [1] => Array
        (
            [car_type_id] => 3
            [car_type_name] => LUXURY
            [car_type_image] => uploads/car/editcar_3.png
            [city_id] => 122
            [base_fare] => 200 Per 3 Km
            [ride_mode] => 1
        )

    [2] => Array
        (
            [car_type_id] => 001
            [car_type_name] => Rental
            [car_type_image] => uploads/car/editcar_2.png
            [city_id] => 122
            [distance] => 
            [base_fare] => 
            [ride_mode] => 2
        )

)

city_name: Sharjah
latitude: 25.30074978820543
longitude: 55.442715771496296
-------------------------
Rental - Car Type Api: October 7, 2017, 5:08 pm
Response: Array
(
    [0] => Array
        (
            [car_type_id] => 4
            [car_type_name] => Mini
            [car_type_image] => uploads/car/editcar_4.png
            [city_id] => 122
            [base_fare] => 100 Per 3 Km
            [ride_mode] => 1
        )

    [1] => Array
        (
            [car_type_id] => 3
            [car_type_name] => LUXURY
            [car_type_image] => uploads/car/editcar_3.png
            [city_id] => 122
            [base_fare] => 200 Per 3 Km
            [ride_mode] => 1
        )

    [2] => Array
        (
            [car_type_id] => 001
            [car_type_name] => Rental
            [car_type_image] => uploads/car/editcar_2.png
            [city_id] => 122
            [distance] => 
            [base_fare] => 
            [ride_mode] => 2
        )

)

city_name: Sharjah
latitude: 25.30074978820543
longitude: 55.442715771496296
-------------------------
Rental - Car Type Api: October 7, 2017, 5:37 pm
Response: Array
(
    [0] => Array
        (
            [car_type_id] => 4
            [car_type_name] => Mini
            [car_type_image] => uploads/car/editcar_4.png
            [city_id] => 122
            [base_fare] => 100 Per 3 Km
            [ride_mode] => 1
        )

    [1] => Array
        (
            [car_type_id] => 3
            [car_type_name] => LUXURY
            [car_type_image] => uploads/car/editcar_3.png
            [city_id] => 122
            [base_fare] => 200 Per 3 Km
            [ride_mode] => 1
        )

    [2] => Array
        (
            [car_type_id] => 001
            [car_type_name] => Rental
            [car_type_image] => uploads/car/editcar_2.png
            [city_id] => 122
            [distance] => 
            [base_fare] => 
            [ride_mode] => 2
        )

)

city_name: Sharjah
latitude: 25.30074978820543
longitude: 55.442715771496296
-------------------------
Rental - Car Type Api: October 7, 2017, 5:41 pm
Response: Array
(
    [0] => Array
        (
            [car_type_id] => 2
            [car_type_name] => HATCHBACK
            [car_type_image] => uploads/car/editcar_2.png
            [city_id] => 56
            [base_fare] => 100 Per 4 Miles
            [ride_mode] => 1
        )

    [1] => Array
        (
            [car_type_id] => 3
            [car_type_name] => LUXURY
            [car_type_image] => uploads/car/editcar_3.png
            [city_id] => 56
            [base_fare] => 100 Per 4 Miles
            [ride_mode] => 1
        )

    [2] => Array
        (
            [car_type_id] => 4
            [car_type_name] => Mini
            [car_type_image] => uploads/car/editcar_4.png
            [city_id] => 56
            [base_fare] => 178 Per 4 Miles
            [ride_mode] => 1
        )

    [3] => Array
        (
            [car_type_id] => 001
            [car_type_name] => Rental
            [car_type_image] => uploads/car/editcar_2.png
            [city_id] => 56
            [distance] => 
            [base_fare] => 
            [ride_mode] => 2
        )

)

city_name: Gurugram
latitude: 28.41221554380604
longitude: 77.04323798418045
-------------------------
Rental - Car Type Api: October 7, 2017, 5:44 pm
Response: Array
(
    [0] => Array
        (
            [car_type_id] => 2
            [car_type_name] => HATCHBACK
            [car_type_image] => uploads/car/editcar_2.png
            [city_id] => 56
            [base_fare] => 100 Per 4 Miles
            [ride_mode] => 1
        )

    [1] => Array
        (
            [car_type_id] => 3
            [car_type_name] => LUXURY
            [car_type_image] => uploads/car/editcar_3.png
            [city_id] => 56
            [base_fare] => 100 Per 4 Miles
            [ride_mode] => 1
        )

    [2] => Array
        (
            [car_type_id] => 4
            [car_type_name] => Mini
            [car_type_image] => uploads/car/editcar_4.png
            [city_id] => 56
            [base_fare] => 178 Per 4 Miles
            [ride_mode] => 1
        )

    [3] => Array
        (
            [car_type_id] => 001
            [car_type_name] => Rental
            [car_type_image] => uploads/car/editcar_2.png
            [city_id] => 56
            [distance] => 
            [base_fare] => 
            [ride_mode] => 2
        )

)

city_name: Gurugram
latitude: 28.41221878760878
longitude: 77.04323463141918
-------------------------
Rental - Car Type Api: October 7, 2017, 5:51 pm
Response: Array
(
    [0] => Array
        (
            [car_type_id] => 4
            [car_type_name] => Mini
            [car_type_image] => uploads/car/editcar_4.png
            [city_id] => 122
            [base_fare] => 100 Per 3 Km
            [ride_mode] => 1
        )

    [1] => Array
        (
            [car_type_id] => 3
            [car_type_name] => LUXURY
            [car_type_image] => uploads/car/editcar_3.png
            [city_id] => 122
            [base_fare] => 200 Per 3 Km
            [ride_mode] => 1
        )

    [2] => Array
        (
            [car_type_id] => 001
            [car_type_name] => Rental
            [car_type_image] => uploads/car/editcar_2.png
            [city_id] => 122
            [distance] => 
            [base_fare] => 
            [ride_mode] => 2
        )

)

city_name: Sharjah
latitude: 25.30074978820543
longitude: 55.442715771496296
-------------------------
Rental - Car Type Api: October 7, 2017, 5:56 pm
Response: Array
(
    [0] => Array
        (
            [car_type_id] => 4
            [car_type_name] => Mini
            [car_type_image] => uploads/car/editcar_4.png
            [city_id] => 122
            [base_fare] => 100 Per 3 Km
            [ride_mode] => 1
        )

    [1] => Array
        (
            [car_type_id] => 3
            [car_type_name] => LUXURY
            [car_type_image] => uploads/car/editcar_3.png
            [city_id] => 122
            [base_fare] => 200 Per 3 Km
            [ride_mode] => 1
        )

    [2] => Array
        (
            [car_type_id] => 001
            [car_type_name] => Rental
            [car_type_image] => uploads/car/editcar_2.png
            [city_id] => 122
            [distance] => 
            [base_fare] => 
            [ride_mode] => 2
        )

)

city_name: Sharjah
latitude: 25.300740694742455
longitude: 55.442714765667915
-------------------------
Rental - Car Type Api: October 7, 2017, 5:57 pm
Response: Array
(
    [0] => Array
        (
            [car_type_id] => 4
            [car_type_name] => Mini
            [car_type_image] => uploads/car/editcar_4.png
            [city_id] => 122
            [base_fare] => 100 Per 3 Km
            [ride_mode] => 1
        )

    [1] => Array
        (
            [car_type_id] => 3
            [car_type_name] => LUXURY
            [car_type_image] => uploads/car/editcar_3.png
            [city_id] => 122
            [base_fare] => 200 Per 3 Km
            [ride_mode] => 1
        )

    [2] => Array
        (
            [car_type_id] => 001
            [car_type_name] => Rental
            [car_type_image] => uploads/car/editcar_2.png
            [city_id] => 122
            [distance] => 
            [base_fare] => 
            [ride_mode] => 2
        )

)

city_name: Sharjah
latitude: 25.30074978820543
longitude: 55.442715771496296
-------------------------
Rental - Car Type Api: October 7, 2017, 6:05 pm
Response: Array
(
    [0] => Array
        (
            [car_type_id] => 4
            [car_type_name] => Mini
            [car_type_image] => uploads/car/editcar_4.png
            [city_id] => 122
            [base_fare] => 100 Per 3 Km
            [ride_mode] => 1
        )

    [1] => Array
        (
            [car_type_id] => 3
            [car_type_name] => LUXURY
            [car_type_image] => uploads/car/editcar_3.png
            [city_id] => 122
            [base_fare] => 200 Per 3 Km
            [ride_mode] => 1
        )

    [2] => Array
        (
            [car_type_id] => 001
            [car_type_name] => Rental
            [car_type_image] => uploads/car/editcar_2.png
            [city_id] => 122
            [distance] => 
            [base_fare] => 
            [ride_mode] => 2
        )

)

city_name: Sharjah
latitude: 25.30074978820543
longitude: 55.442715771496296
-------------------------
Rental - Car Type Api: October 7, 2017, 6:36 pm
Response: Array
(
    [0] => Array
        (
            [car_type_id] => 4
            [car_type_name] => Mini
            [car_type_image] => uploads/car/editcar_4.png
            [city_id] => 122
            [base_fare] => 100 Per 3 Km
            [ride_mode] => 1
        )

    [1] => Array
        (
            [car_type_id] => 3
            [car_type_name] => LUXURY
            [car_type_image] => uploads/car/editcar_3.png
            [city_id] => 122
            [base_fare] => 200 Per 3 Km
            [ride_mode] => 1
        )

    [2] => Array
        (
            [car_type_id] => 001
            [car_type_name] => Rental
            [car_type_image] => uploads/car/editcar_2.png
            [city_id] => 122
            [distance] => 
            [base_fare] => 
            [ride_mode] => 2
        )

)

city_name: Sharjah
latitude: 25.30074978820543
longitude: 55.442715771496296
-------------------------
Rental - Car Type Api: October 7, 2017, 7:12 pm
Response: Array
(
    [0] => Array
        (
            [car_type_id] => 4
            [car_type_name] => Mini
            [car_type_image] => uploads/car/editcar_4.png
            [city_id] => 122
            [base_fare] => 100 Per 3 Km
            [ride_mode] => 1
        )

    [1] => Array
        (
            [car_type_id] => 3
            [car_type_name] => LUXURY
            [car_type_image] => uploads/car/editcar_3.png
            [city_id] => 122
            [base_fare] => 200 Per 3 Km
            [ride_mode] => 1
        )

    [2] => Array
        (
            [car_type_id] => 001
            [car_type_name] => Rental
            [car_type_image] => uploads/car/editcar_2.png
            [city_id] => 122
            [distance] => 
            [base_fare] => 
            [ride_mode] => 2
        )

)

city_name: Sharjah
latitude: 25.30074978820543
longitude: 55.442715771496296
-------------------------
Rental - Car Type Api: October 7, 2017, 11:07 pm
Response: Array
(
    [0] => Array
        (
            [car_type_id] => 4
            [car_type_name] => Mini
            [car_type_image] => uploads/car/editcar_4.png
            [city_id] => 122
            [base_fare] => 80 Per 5 Km
            [ride_mode] => 1
        )

    [1] => Array
        (
            [car_type_id] => 3
            [car_type_name] => LUXURY
            [car_type_image] => uploads/car/editcar_3.png
            [city_id] => 122
            [base_fare] => 200 Per 3 Km
            [ride_mode] => 1
        )

    [2] => Array
        (
            [car_type_id] => 001
            [car_type_name] => Rental
            [car_type_image] => uploads/car/editcar_2.png
            [city_id] => 122
            [distance] => 
            [base_fare] => 
            [ride_mode] => 2
        )

)

city_name: Sharjah
latitude: 25.30074978820543
longitude: 55.442715771496296
-------------------------
Rental - Car Type Api: October 7, 2017, 11:12 pm
Response: Array
(
    [0] => Array
        (
            [car_type_id] => 4
            [car_type_name] => Mini
            [car_type_image] => uploads/car/editcar_4.png
            [city_id] => 122
            [base_fare] => 80 Per 5 Km
            [ride_mode] => 1
        )

    [1] => Array
        (
            [car_type_id] => 3
            [car_type_name] => LUXURY
            [car_type_image] => uploads/car/editcar_3.png
            [city_id] => 122
            [base_fare] => 200 Per 3 Km
            [ride_mode] => 1
        )

    [2] => Array
        (
            [car_type_id] => 001
            [car_type_name] => Rental
            [car_type_image] => uploads/car/editcar_2.png
            [city_id] => 122
            [distance] => 
            [base_fare] => 
            [ride_mode] => 2
        )

)

city_name: Sharjah
latitude: 25.30074978820543
longitude: 55.442715771496296
-------------------------
Rental - Car Type Api: October 7, 2017, 11:20 pm
Response: Array
(
    [0] => Array
        (
            [car_type_id] => 4
            [car_type_name] => Mini
            [car_type_image] => uploads/car/editcar_4.png
            [city_id] => 122
            [base_fare] => 80 Per 5 Km
            [ride_mode] => 1
        )

    [1] => Array
        (
            [car_type_id] => 3
            [car_type_name] => LUXURY
            [car_type_image] => uploads/car/editcar_3.png
            [city_id] => 122
            [base_fare] => 200 Per 3 Km
            [ride_mode] => 1
        )

    [2] => Array
        (
            [car_type_id] => 001
            [car_type_name] => Rental
            [car_type_image] => uploads/car/editcar_2.png
            [city_id] => 122
            [distance] => 
            [base_fare] => 
            [ride_mode] => 2
        )

)

city_name: Sharjah
latitude: 25.301369051427606
longitude: 55.44293772429228
-------------------------
Rental - Car Type Api: October 7, 2017, 11:31 pm
Response: Array
(
    [0] => Array
        (
            [car_type_id] => 4
            [car_type_name] => Mini
            [car_type_image] => uploads/car/editcar_4.png
            [city_id] => 122
            [base_fare] => 80 Per 5 Km
            [ride_mode] => 1
        )

    [1] => Array
        (
            [car_type_id] => 3
            [car_type_name] => LUXURY
            [car_type_image] => uploads/car/editcar_3.png
            [city_id] => 122
            [base_fare] => 80 Per 5 Km
            [ride_mode] => 1
        )

    [2] => Array
        (
            [car_type_id] => 001
            [car_type_name] => Rental
            [car_type_image] => uploads/car/editcar_2.png
            [city_id] => 122
            [distance] => 
            [base_fare] => 
            [ride_mode] => 2
        )

)

city_name: Sharjah
latitude: 25.30074978820543
longitude: 55.442715771496296
-------------------------
