car by city api -: September 21, 2017, 7:06 am
Response: {"result":1,"msg":"0.000232531850748","details":{"ride_id":"60","user_id":"9","coupon_code":"","pickup_lat":"28.4120683930142","pickup_long":"77.0432671532035","pickup_location":"68, Plaza Street, Block S, Uppal Southend, Sector 49\nGurugram, Haryana 122018","drop_lat":"28.4592693","drop_long":"77.0724192","drop_location":"Huda Metro Station","ride_date":"Thursday, Sep 21","ride_time":"07:06:23","last_time_stamp":"07:06:23 AM","ride_image":"https:maps.googleapis.com\/maps\/api\/staticmap?center=&zoom=12&size=200x200&maptype=roadmap&markers=color:green|label:S|28.4120683930142,77.0432671532035&markers=color:red|label:D|28.4592693,77.0724192&key=AIzaSyAIFe17P91Mfez3T6cqk7hfDSyvMO812Z4","later_date":"","later_time":"","driver_id":"0","car_type_id":"3","ride_type":"1","pem_file":"2","ride_status":"1","payment_status":"0","reason_id":"0","payment_option_id":"1","card_id":"0","ride_platform":"1","ride_admin_status":"1","date":"2017-09-21"}}
drop_lat: 28.4592693
drop_long: 77.0724192
drop_location: Huda Metro Station
car_type_id:3
user_id:9
coupon_code :
pickup_lat : 28.4120683930142
pickup_long : 77.0432671532035
pickup_location :68, Plaza Street, Block S, Uppal Southend, Sector 49
Gurugram, Haryana 122018
payment_option_id :1
card_id :
pem_file :2
-------------------------
Ride Accept api -: September 21, 2017, 7:06 am
Response: {"result":1,"msg":"Booking Accepted!!","details":{"ride_id":"60","user_id":"9","coupon_code":"","pickup_lat":"28.4120683930142","pickup_long":"77.0432671532035","pickup_location":"68, Plaza Street, Block S, Uppal Southend, Sector 49\nGurugram, Haryana 122018","drop_lat":"28.4592693","drop_long":"77.0724192","drop_location":"Huda Metro Station","ride_date":"Thursday, Sep 21","ride_time":"07:06:23","last_time_stamp":"07:06:32 AM","ride_image":"https:maps.googleapis.com\/maps\/api\/staticmap?center=&zoom=12&size=200x200&maptype=roadmap&markers=color:green|label:S|28.4120683930142,77.0432671532035&markers=color:red|label:D|28.4592693,77.0724192&key=AIzaSyAIFe17P91Mfez3T6cqk7hfDSyvMO812Z4","later_date":"","later_time":"","driver_id":"9","car_type_id":"3","ride_type":"1","pem_file":"2","ride_status":"3","payment_status":"0","reason_id":"0","payment_option_id":"1","card_id":"0","ride_platform":"1","ride_admin_status":"1","date":"2017-09-21","user_type":"1","user_name":"ami .","user_email":"a@gmail.com","user_phone":"+918871531856","user_password":"asdfghjkl","user_image":"http:\/\/apporio.org\/Alaride\/alaride\/uploads\/swift_file65.jpeg","device_id":"0B48B0AEFC9FD242959E74E30AB0D4D5A5128F0735718523122C50C32FAE5795","flag":"1","wallet_money":"0","previous_outstanding":"0.00","register_date":"Tuesday, Sep 19","referral_code":"","free_rides":"0","referral_code_send":"0","phone_verified":"0","email_verified":"0","password_created":"0","facebook_id":"","facebook_mail":"","facebook_image":"","facebook_firstname":"","facebook_lastname":"","google_id":"","google_name":"","google_mail":"","google_image":"","google_token":"","facebook_token":"","token_created":"0","login_logout":"1","rating":"3.33333333333","user_delete":"0","unique_number":"","user_signup_type":"1","user_signup_date":"2017-09-19","status":"1","car_type_name":"LUXURY","car_name_arabic":"","car_type_name_french":"LUXURY","car_type_image":"uploads\/car\/editcar_3.png","cartype_image_size":"","ride_mode":"1","cartype_rating":"3.92857142857","car_admin_status":"1","company_id":"0","commission":"5","driver_name":"anurag","driver_email":"a@gmail.com","driver_phone":"8871231856","driver_image":"","driver_password":"asdfghjkl","driver_token":"j6MnFM0Do09raIKW","total_payment_eraned":"299.25","company_payment":"10","driver_payment":"","car_model_id":"2","car_number":"1234","city_id":"56","license":"","license_expire":"","rc":"","rc_expire":"","insurance":"","insurance_expire":"","other_docs":"","driver_bank_name":"","driver_account_number":"","total_card_payment":"0.00","total_cash_payment":"0.00","amount_transfer_pending":"0.00","current_lat":"28.4072557916307","current_long":"77.0399133452395","current_location":"Dhani, Sector 72 , Gurugram, Haryana","last_update":"07:06","last_update_date":"Thursday, Sep 21, 2017","completed_rides":"3","reject_rides":"1","cancelled_rides":"1","busy":"1","online_offline":"1","detail_status":"2","payment_transfer":"0","verification_date":"2017-09-19","verification_status":"1","driver_signup_date":"2017-09-19","driver_status_image":"http:\/\/www.apporiotaxi.com\/superadminpanel\/images\/icons8-Error-80.png","driver_status_message":"your document id in under process, You will be notified very soon","total_document_need":"3","driver_admin_status":"1","verfiy_document":"3"}}
ride_id: 60
driver_id: 9
driver_token: j6MnFM0Do09raIKW
-------------------------
ride start to road  Api - : September 21, 2017, 7:07 am
ride_id :60
driver_id: 9
begin_lat: 28.4120626662052
begin_long: 77.0432522745212
driver_token: j6MnFM0Do09raIKW
-------------------------
ride end Api - : September 21, 2017, 7:07 am
ride_id: 60
driver_id: 9
end_lat: 28.4121496244161
end_long: 77.043216143922
meter_distance: 0.0
lat_long: 
-------------------------
Driver App - Login driver Api: September 21, 2017, 7:33 am
Response: Array
(
    [driver_id] => 6
    [company_id] => 0
    [commission] => 5
    [driver_name] => karan
    [driver_email] => karan@gmail.com
    [driver_phone] => 7988782109
    [driver_image] => 
    [driver_password] => qwerty
    [driver_token] => lEBD2QZJOiugnq4L
    [total_payment_eraned] => 95
    [company_payment] => 5
    [driver_payment] => 
    [device_id] => 0B48B0AEFC9FD242959E74E30AB0D4D5A5128F0735718523122C50C32FAE5795
    [flag] => 1
    [rating] => 4
    [car_type_id] => 3
    [car_model_id] => 20
    [car_number] => 7766
    [city_id] => 56
    [register_date] => Monday, Sep 18
    [license] => 
    [license_expire] => 
    [rc] => 
    [rc_expire] => 
    [insurance] => 
    [insurance_expire] => 
    [other_docs] => 
    [driver_bank_name] => 
    [driver_account_number] => 
    [total_card_payment] => 0.00
    [total_cash_payment] => 0.00
    [amount_transfer_pending] => 0.00
    [current_lat] => 28.411714667814
    [current_long] => 77.0429412003937
    [current_location] => 1, Sohna Road, Block S, Uppal Southend, Sector 49 , Gurugram, Haryana 122001
    [last_update] => 06:33
    [last_update_date] => Tuesday, Sep 19, 2017
    [completed_rides] => 1
    [reject_rides] => 0
    [cancelled_rides] => 0
    [login_logout] => 1
    [busy] => 0
    [online_offline] => 2
    [detail_status] => 2
    [payment_transfer] => 0
    [verification_date] => 2017-09-18
    [verification_status] => 1
    [unique_number] => 
    [driver_signup_date] => 2017-09-18
    [driver_status_image] => http://www.apporiotaxi.com/superadminpanel/images/icons8-Error-80.png
    [driver_status_message] => your document id in under process, You will be notified very soon
    [total_document_need] => 3
    [driver_admin_status] => 1
    [verfiy_document] => 3
    [city_name] => Gurugram
    [city_latitude] => 
    [city_longitude] => 
    [currency] => &#8377
    [distance] => Miles
    [city_name_arabic] => 
    [city_name_french] => 
    [city_admin_status] => 1
    [car_type_name] => LUXURY
    [car_model_name] => Sunny
)

driver_email_phone: 7988782109
driver_password: qwerty
-------------------------
car by city api -: September 21, 2017, 7:34 am
Response: {"result":1,"msg":"0.00269509664822","details":{"ride_id":"61","user_id":"9","coupon_code":"","pickup_lat":"28.4121067289115","pickup_long":"77.043255418539","pickup_location":"68, Plaza Street, Block S, Uppal Southend, Sector 49\nGurugram, Haryana 122018","drop_lat":"28.4592693","drop_long":"77.0724192","drop_location":"Huda Metro Station","ride_date":"Thursday, Sep 21","ride_time":"07:34:22","last_time_stamp":"07:34:22 AM","ride_image":"https:maps.googleapis.com\/maps\/api\/staticmap?center=&zoom=12&size=200x200&maptype=roadmap&markers=color:green|label:S|28.4121067289115,77.043255418539&markers=color:red|label:D|28.4592693,77.0724192&key=AIzaSyAIFe17P91Mfez3T6cqk7hfDSyvMO812Z4","later_date":"","later_time":"","driver_id":"0","car_type_id":"3","ride_type":"1","pem_file":"2","ride_status":"1","payment_status":"0","reason_id":"0","payment_option_id":"1","card_id":"0","ride_platform":"1","ride_admin_status":"1","date":"2017-09-21"}}
drop_lat: 28.4592693
drop_long: 77.0724192
drop_location: Huda Metro Station
car_type_id:3
user_id:9
coupon_code :
pickup_lat : 28.4121067289115
pickup_long : 77.043255418539
pickup_location :68, Plaza Street, Block S, Uppal Southend, Sector 49
Gurugram, Haryana 122018
payment_option_id :1
card_id :
pem_file :2
-------------------------
Ride Accept api -: September 21, 2017, 7:35 am
Response: {"result":1,"msg":"Booking Accepted!!","details":{"ride_id":"61","user_id":"9","coupon_code":"","pickup_lat":"28.4121067289115","pickup_long":"77.043255418539","pickup_location":"68, Plaza Street, Block S, Uppal Southend, Sector 49\nGurugram, Haryana 122018","drop_lat":"28.4592693","drop_long":"77.0724192","drop_location":"Huda Metro Station","ride_date":"Thursday, Sep 21","ride_time":"07:34:22","last_time_stamp":"07:35:03 AM","ride_image":"https:maps.googleapis.com\/maps\/api\/staticmap?center=&zoom=12&size=200x200&maptype=roadmap&markers=color:green|label:S|28.4121067289115,77.043255418539&markers=color:red|label:D|28.4592693,77.0724192&key=AIzaSyAIFe17P91Mfez3T6cqk7hfDSyvMO812Z4","later_date":"","later_time":"","driver_id":"6","car_type_id":"3","ride_type":"1","pem_file":"2","ride_status":"3","payment_status":"0","reason_id":"0","payment_option_id":"1","card_id":"0","ride_platform":"1","ride_admin_status":"1","date":"2017-09-21","user_type":"1","user_name":"ami .","user_email":"a@gmail.com","user_phone":"+918871531856","user_password":"asdfghjkl","user_image":"http:\/\/apporio.org\/Alaride\/alaride\/uploads\/swift_file65.jpeg","device_id":"0B48B0AEFC9FD242959E74E30AB0D4D5A5128F0735718523122C50C32FAE5795","flag":"1","wallet_money":"0","previous_outstanding":"0.00","register_date":"Monday, Sep 18","referral_code":"","free_rides":"0","referral_code_send":"0","phone_verified":"0","email_verified":"0","password_created":"0","facebook_id":"","facebook_mail":"","facebook_image":"","facebook_firstname":"","facebook_lastname":"","google_id":"","google_name":"","google_mail":"","google_image":"","google_token":"","facebook_token":"","token_created":"0","login_logout":"1","rating":"4","user_delete":"0","unique_number":"","user_signup_type":"1","user_signup_date":"2017-09-19","status":"1","car_type_name":"LUXURY","car_name_arabic":"","car_type_name_french":"LUXURY","car_type_image":"uploads\/car\/editcar_3.png","cartype_image_size":"","ride_mode":"1","cartype_rating":"3.9375","car_admin_status":"1","company_id":"0","commission":"5","driver_name":"karan","driver_email":"karan@gmail.com","driver_phone":"7988782109","driver_image":"","driver_password":"qwerty","driver_token":"lEBD2QZJOiugnq4L","total_payment_eraned":"95","company_payment":"5","driver_payment":"","car_model_id":"20","car_number":"7766","city_id":"56","license":"","license_expire":"","rc":"","rc_expire":"","insurance":"","insurance_expire":"","other_docs":"","driver_bank_name":"","driver_account_number":"","total_card_payment":"0.00","total_cash_payment":"0.00","amount_transfer_pending":"0.00","current_lat":"28.4120850544668","current_long":"77.0432590109044","current_location":"68, Plaza Street, Block S, Uppal Southend, Sector 49 , Gurugram, Haryana 122018","last_update":"07:35","last_update_date":"Thursday, Sep 21, 2017","completed_rides":"1","reject_rides":"0","cancelled_rides":"0","busy":"1","online_offline":"1","detail_status":"2","payment_transfer":"0","verification_date":"2017-09-18","verification_status":"1","driver_signup_date":"2017-09-18","driver_status_image":"http:\/\/www.apporiotaxi.com\/superadminpanel\/images\/icons8-Error-80.png","driver_status_message":"your document id in under process, You will be notified very soon","total_document_need":"3","driver_admin_status":"1","verfiy_document":"3"}}
ride_id: 61
driver_id: 6
driver_token: lEBD2QZJOiugnq4L
-------------------------
car by city api -: September 21, 2017, 8:27 am
Response: {"result":1,"msg":"0.0683085811731","details":{"ride_id":"62","user_id":"9","coupon_code":"","pickup_lat":"28.4120822046489","pickup_long":"77.0432572425313","pickup_location":"68, Plaza Street, Block S, Uppal Southend, Sector 49\nGurugram, Haryana 122018","drop_lat":"28.4592693","drop_long":"77.0724192","drop_location":"Huda Metro Station","ride_date":"Thursday, Sep 21","ride_time":"08:27:37","last_time_stamp":"08:27:37 AM","ride_image":"https:maps.googleapis.com\/maps\/api\/staticmap?center=&zoom=12&size=200x200&maptype=roadmap&markers=color:green|label:S|28.4120822046489,77.0432572425313&markers=color:red|label:D|28.4592693,77.0724192&key=AIzaSyAIFe17P91Mfez3T6cqk7hfDSyvMO812Z4","later_date":"","later_time":"","driver_id":"0","car_type_id":"3","ride_type":"1","pem_file":"2","ride_status":"1","payment_status":"0","reason_id":"0","payment_option_id":"1","card_id":"0","ride_platform":"1","ride_admin_status":"1","date":"2017-09-21"}}
drop_lat: 28.4592693
drop_long: 77.0724192
drop_location: Huda Metro Station
car_type_id:3
user_id:9
coupon_code :
pickup_lat : 28.4120822046489
pickup_long : 77.0432572425313
pickup_location :68, Plaza Street, Block S, Uppal Southend, Sector 49
Gurugram, Haryana 122018
payment_option_id :1
card_id :
pem_file :2
-------------------------
car by city api -: September 21, 2017, 10:12 pm
Response: {"result":1,"msg":"0.0443071324573","details":{"ride_id":"66","user_id":"8","coupon_code":"","pickup_lat":"25.3009459037238","pickup_long":"55.4426577687263","pickup_location":"Muwailih Commercial - Sharjah\nUnited Arab Emirates","drop_lat":"25.2788468","drop_long":"55.3309395","drop_location":"Deira","ride_date":"Thursday, Sep 21","ride_time":"22:12:14","last_time_stamp":"10:12:14 PM","ride_image":"https:maps.googleapis.com\/maps\/api\/staticmap?center=&zoom=12&size=200x200&maptype=roadmap&markers=color:green|label:S|25.3009459037238,55.4426577687263&markers=color:red|label:D|25.2788468,55.3309395&key=AIzaSyAIFe17P91Mfez3T6cqk7hfDSyvMO812Z4","later_date":"","later_time":"","driver_id":"0","car_type_id":"4","ride_type":"1","pem_file":"2","ride_status":"1","payment_status":"0","reason_id":"0","payment_option_id":"1","card_id":"0","ride_platform":"1","ride_admin_status":"1","date":"2017-09-21"}}
drop_lat: 25.2788468
drop_long: 55.3309395
drop_location: Deira
car_type_id:4
user_id:8
coupon_code :
pickup_lat : 25.3009459037238
pickup_long : 55.4426577687263
pickup_location :Muwailih Commercial - Sharjah
United Arab Emirates
payment_option_id :1
card_id :
pem_file :2
-------------------------
Ride Accept api -: September 21, 2017, 10:12 pm
Response: {"result":1,"msg":"Booking Accepted!!","details":{"ride_id":"66","user_id":"8","coupon_code":"","pickup_lat":"25.3009459037238","pickup_long":"55.4426577687263","pickup_location":"Muwailih Commercial - Sharjah\nUnited Arab Emirates","drop_lat":"25.2788468","drop_long":"55.3309395","drop_location":"Deira","ride_date":"Thursday, Sep 21","ride_time":"22:12:14","last_time_stamp":"10:12:23 PM","ride_image":"https:maps.googleapis.com\/maps\/api\/staticmap?center=&zoom=12&size=200x200&maptype=roadmap&markers=color:green|label:S|25.3009459037238,55.4426577687263&markers=color:red|label:D|25.2788468,55.3309395&key=AIzaSyAIFe17P91Mfez3T6cqk7hfDSyvMO812Z4","later_date":"","later_time":"","driver_id":"8","car_type_id":"4","ride_type":"1","pem_file":"2","ride_status":"3","payment_status":"0","reason_id":"0","payment_option_id":"1","card_id":"0","ride_platform":"1","ride_admin_status":"1","date":"2017-09-21","user_type":"1","user_name":"noorabbasi .","user_email":"noorabbasi@hotmail.com","user_phone":"+971509400567","user_password":"forgotten","user_image":"","device_id":"2BF98F1B1232B4D1C8248F764F4C1C39FC5B158BEB9F02C17E68AF8E3FCE6D7B","flag":"1","wallet_money":"0","previous_outstanding":"0.00","register_date":"Monday, Sep 18","referral_code":"","free_rides":"0","referral_code_send":"0","phone_verified":"0","email_verified":"0","password_created":"0","facebook_id":"","facebook_mail":"","facebook_image":"","facebook_firstname":"","facebook_lastname":"","google_id":"","google_name":"","google_mail":"","google_image":"","google_token":"","facebook_token":"","token_created":"0","login_logout":"1","rating":"4.45454545455","user_delete":"0","unique_number":"","user_signup_type":"1","user_signup_date":"2017-09-18","status":"1","car_type_name":"Mini","car_name_arabic":"","car_type_name_french":"Mini","car_type_image":"uploads\/car\/editcar_4.png","cartype_image_size":"","ride_mode":"1","cartype_rating":"4.21428571429","car_admin_status":"1","company_id":"0","commission":"0","driver_name":"Ashar","driver_email":"Asher@hotmail.com","driver_phone":"0501234567","driver_image":"","driver_password":"forgotten","driver_token":"eswhJVJ94Qosky2S","total_payment_eraned":"905","company_payment":"0","driver_payment":"","car_model_id":"29","car_number":"44332211","city_id":"122","license":"","license_expire":"","rc":"","rc_expire":"","insurance":"","insurance_expire":"","other_docs":"","driver_bank_name":"","driver_account_number":"","total_card_payment":"0.00","total_cash_payment":"0.00","amount_transfer_pending":"0.00","current_lat":"25.3010745627393","current_long":"55.4428785408092","current_location":"Muwailih Commercial - Sharjah , United Arab Emirates","last_update":"22:12","last_update_date":"Thursday, Sep 21, 2017","completed_rides":"11","reject_rides":"1","cancelled_rides":"3","busy":"1","online_offline":"1","detail_status":"2","payment_transfer":"0","verification_date":"2017-09-18","verification_status":"1","driver_signup_date":"2017-09-18","driver_status_image":"http:\/\/www.apporiotaxi.com\/superadminpanel\/images\/icons8-Error-80.png","driver_status_message":"your document id in under process, You will be notified very soon","total_document_need":"3","driver_admin_status":"1","verfiy_document":"3"}}
ride_id: 66
driver_id: 8
driver_token: eswhJVJ94Qosky2S
-------------------------
ride start to road  Api - : September 21, 2017, 10:12 pm
ride_id :66
driver_id: 8
begin_lat: 25.300743681596
begin_long: 55.4423807771109
driver_token: eswhJVJ94Qosky2S
-------------------------
ride end Api - : September 21, 2017, 10:12 pm
ride_id: 66
driver_id: 8
end_lat: 25.3006865876031
end_long: 55.4426776338885
meter_distance: 0.0
lat_long: 
-------------------------
